<svg xmlns="http://www.w3.org/2000/svg" width="150" height="150" viewBox="0 0 150 150">
  <g id="Group_486" data-name="Group 486" transform="translate(-1137.5 -295.772)">
    <g id="Group_485" data-name="Group 485">
      <g id="Ellipse_15" data-name="Ellipse 15" transform="translate(1189.21 362.838) rotate(-80.759)" fill="none" stroke="#1d1d1b" stroke-miterlimit="10" stroke-width="3">
        <circle cx="20.294" cy="20.294" r="20.294" stroke="none"/>
        <circle cx="20.294" cy="20.294" r="18.794" fill="none"/>
      </g>
      <path id="Path_1050" data-name="Path 1050" d="M1170.147,415.772h0a38.824,38.824,0,0,1,38.823-38.824h7.06a38.824,38.824,0,0,1,38.823,38.824h0" fill="none" stroke="#1d1d1b" stroke-miterlimit="10" stroke-width="3"/>
    </g>
    <g id="Ellipse_16" data-name="Ellipse 16" transform="translate(1137.5 295.772)" fill="none" stroke="#000" stroke-miterlimit="10" stroke-width="3">
      <circle cx="75" cy="75" r="75" stroke="none"/>
      <circle cx="75" cy="75" r="73.5" fill="none"/>
    </g>
  </g>
</svg>
