<svg xmlns="http://www.w3.org/2000/svg" viewBox="0 0 47.88 49.25">
    <defs>
        <style>.cls-1{fill:#DBDCDC;}</style>
    </defs>
    <title>Asset 14</title>
    <g id="Layer_2" data-name="Layer 2">
        <g id="Layer_1-2" data-name="Layer 1">
            <path class="cls-1" d="M47.33,10.28,24.33.08a.94.94,0,0,0-.77,0l-23,10.2a1,1,0,0,0-.56,1V37.81a.92.92,0,0,0,.54.84l23,10.52a.84.84,0,0,0,.38.08.71.71,0,0,0,.38-.08l23-10.52a.93.93,0,0,0,.53-.84V11.26A1,1,0,0,0,47.33,10.28ZM13.94,16.59a.94.94,0,0,0-.52.83v9L8.93,24.27V15.39L30.61,4.94l3.91,1.74ZM23.94,2,28.4,4,8.47,13.57l-5.25-2.4ZM23,46.9,1.84,37.22V12.56L7.09,15v9.9a.92.92,0,0,0,.52.83l6.34,3a.92.92,0,0,0,.39.09.93.93,0,0,0,.92-.92V18.7L23,22.24Zm.92-26.26-7.27-3.32L36.73,7.65l7.93,3.52ZM46,37.22,24.86,46.9V22.24L46,12.56Z"/>
        </g>
    </g>
</svg>