<svg xmlns="http://www.w3.org/2000/svg" xmlns:xlink="http://www.w3.org/1999/xlink" width="21.977" height="23.343" viewBox="0 0 21.977 23.343">
  <defs>
    <linearGradient id="linear-gradient" x1="-54.982" y1="-19.65" x2="-54.136" y2="-20.504" gradientUnits="objectBoundingBox">
      <stop offset="0" stop-color="#be2227"/>
      <stop offset="1" stop-color="#f79721"/>
    </linearGradient>
    <linearGradient id="linear-gradient-2" x1="-32.67" y1="-32.483" x2="-33.738" y2="-32.483" xlink:href="#linear-gradient"/>
    <linearGradient id="linear-gradient-3" x1="-38.226" y1="-28.178" x2="-37.623" y2="-27.031" xlink:href="#linear-gradient"/>
    <linearGradient id="linear-gradient-4" x1="0.5" y1="0" x2="0.5" y2="1" xlink:href="#linear-gradient"/>
  </defs>
  <g id="Group_278" data-name="Group 278" transform="translate(-880.85 -2126.99)">
    <g id="Group_277" data-name="Group 277">
      <path id="Path_359" data-name="Path 359" d="M897.489,2133.106l-2.387,16.862-7.49-8.563,5.02,2.429a.421.421,0,0,0,.606-.412l3.672-10.77A.425.425,0,0,1,897.489,2133.106Z" fill="url(#linear-gradient)"/>
      <path id="Path_360" data-name="Path 360" d="M892.835,2137.861a.425.425,0,0,0-.662-.321l-11.159,2.206a.425.425,0,0,1,.1-.729l15.795-6.365-3.672,10.77Z" fill="url(#linear-gradient-2)"/>
      <path id="Path_361" data-name="Path 361" d="M887.612,2141.405l7.49,8.563a.424.424,0,0,1-.682.275l-13.407-10.5,11.159-2.205-4.612,3.132A.423.423,0,0,0,887.612,2141.405Z" fill="url(#linear-gradient-3)"/>
      <path id="Path_362" data-name="Path 362" d="M896.3,2132.9l-3.066,10.45.005.073,3.672-10.77Z" fill="#231f20" opacity="0.2"/>
      <path id="Path_363" data-name="Path 363" d="M895.207,2149.253l-7.479-7.792-.115-.056,7.49,8.563Z" fill="#231f20" opacity="0.2"/>
      <path id="Path_364" data-name="Path 364" d="M881.013,2139.746l11.159-2.206-.186.126-10.354,2.564Z" fill="#231f20" opacity="0.2"/>
    </g>
    <path id="Path_365" data-name="Path 365" d="M902.827,2130.7v.21a.807.807,0,0,1-.81.81h-2.08v2.08a.807.807,0,0,1-.81.81h-.21a.815.815,0,0,1-.82-.81v-2.08h-2.08a.807.807,0,0,1-.81-.81v-.21a.815.815,0,0,1,.81-.82h2.08v-2.08a.815.815,0,0,1,.82-.81h.21a.807.807,0,0,1,.81.81v2.08h2.08A.815.815,0,0,1,902.827,2130.7Z" fill="url(#linear-gradient-4)"/>
  </g>
</svg>
