<svg xmlns="http://www.w3.org/2000/svg" width="154.382" height="46.748" viewBox="0 0 154.382 46.748">
  <g id="Group_15" data-name="Group 15" transform="translate(-340 -146)">
    <g id="Group_9" data-name="Group 9">
      <g id="Group_4" data-name="Group 4">
        <path id="Path_1" data-name="Path 1" d="M461.639,160.024a23.374,23.374,0,0,1-46.747,0v-9.349h-7.048a2.338,2.338,0,0,1,0-4.675h9.386a2.34,2.34,0,0,1,2.337,2.337v11.687a18.7,18.7,0,0,0,37.4,0,2.338,2.338,0,1,1,4.675,0Z" fill="#F8A136"/>
      </g>
      <g id="Group_5" data-name="Group 5">
        <rect id="Rectangle_5" data-name="Rectangle 5" width="4.675" height="9.349" rx="2.337" transform="translate(428.85 155.35)" fill="#F8A136"/>
      </g>
      <g id="Group_6" data-name="Group 6">
        <rect id="Rectangle_6" data-name="Rectangle 6" width="4.675" height="9.349" rx="2.337" transform="translate(443.004 155.35)" fill="#F8A136"/>
      </g>
      <g id="Group_7" data-name="Group 7">
        <circle id="Ellipse_2" data-name="Ellipse 2" cx="4.675" cy="4.675" r="4.675" transform="translate(424.175 183.398)" fill="#F8A136"/>
      </g>
      <g id="Group_8" data-name="Group 8">
        <circle id="Ellipse_3" data-name="Ellipse 3" cx="4.675" cy="4.675" r="4.675" transform="translate(443.004 183.398)" fill="#F8A136"/>
      </g>
    </g>
    <g id="Group_10" data-name="Group 10">
      <rect id="Rectangle_7" data-name="Rectangle 7" width="4.675" height="28.048" rx="2.337" transform="translate(340 155.35)" fill="#F8A136"/>
    </g>
    <g id="Group_11" data-name="Group 11">
      <path id="Path_2" data-name="Path 2" d="M400.77,157.686V181.06a2.337,2.337,0,0,1-4.675,0v-9.35H382.072v9.35a2.337,2.337,0,0,1-4.675,0V157.686a2.336,2.336,0,0,1,3.989-1.651,2.314,2.314,0,0,1,.686,1.651v9.35H396.1v-9.35a2.336,2.336,0,0,1,3.989-1.651A2.314,2.314,0,0,1,400.77,157.686Z" fill="#F8A136"/>
    </g>
    <g id="Group_12" data-name="Group 12">
      <rect id="Rectangle_8" data-name="Rectangle 8" width="4.675" height="28.048" rx="2.337" transform="translate(405.509 155.35)" fill="#F8A136"/>
    </g>
    <g id="Group_13" data-name="Group 13">
      <path id="Path_3" data-name="Path 3" d="M363.434,183.369a14,14,0,1,1,9.2-24.539,2.338,2.338,0,0,1-3.076,3.521,9.32,9.32,0,1,0,0,14.046,2.338,2.338,0,0,1,3.075,3.522A13.986,13.986,0,0,1,363.434,183.369Z" fill="#F8A136"/>
    </g>
    <g id="Group_14" data-name="Group 14">
      <path id="Path_4" data-name="Path 4" d="M480.358,155.438a14.024,14.024,0,1,0,9.349,24.468v1.242a2.337,2.337,0,0,0,4.675,0V169.461A14.025,14.025,0,0,0,480.358,155.438Zm0,23.373a9.35,9.35,0,1,1,9.349-9.35A9.36,9.36,0,0,1,480.358,178.811Z" fill="#F8A136"/>
    </g>
    <text id="BUY_FROM_JAPAN_FOR_YOU" data-name="BUY FROM JAPAN FOR YOU" transform="translate(340.003 191.748)" fill="#F8A136" font-size="6" font-family="Helvetica" letter-spacing="-0.04em"><tspan x="0" y="0">BUY FROM JAPAN FOR YOU</tspan></text>
  </g>
</svg>
